module tracking-service

go 1.21.5

require github.com/gorilla/mux v1.8.1

require (
	github.com/cespare/xxhash/v2 v2.1.2 // indirect
	github.com/dgryski/go-rendezvous v0.0.0-20200823014737-9f7001d12a5f // indirect
	github.com/go-redis/redis/v8 v8.11.5 // indirect
	github.com/golang/snappy v0.0.1 // indirect
	github.com/klauspost/compress v1.13.6 // indirect
	github.com/montanaflynn/stats v0.0.0-20171201202039-1bf9dbcd8cbe // indirect
	github.com/xdg-go/pbkdf2 v1.0.0 // indirect
	github.com/xdg-go/scram v1.1.2 // indirect
	github.com/xdg-go/stringprep v1.0.4 // indirect
	github.com/youmark/pkcs8 v0.0.0-20181117223130-1be2e3e5546d // indirect
	go.mongodb.org/mongo-driver v1.15.0 // indirect
	golang.org/x/crypto v0.17.0 // indirect
	golang.org/x/sync v0.1.0 // indirect
	golang.org/x/text v0.14.0 // indirect
)
